…
```r
mean_daily_steps <- activity %>%
  group_by(date) %>%
  summarize(number_of_steps = mean(steps, na.rm = TRUE))
```

print the results

```r
mean_daily_steps
```

```
## # A tibble: 61 x 2
##    date       number_of_steps
##    <fct>                <dbl>
##  1 2012-10-01         NaN    
##  2 2012-10-02           0.438
##  3 2012-10-03          39.4  
##  4 2012-10-04          42.1  
##  5 2012-10-05          46.2  
##  6 2012-10-06          53.5  
##  7 2012-10-07          38.2  
##  8 2012-10-08         NaN    
##  9 2012-10-09          44.5  
## 10 2012-10-10          34.4  
## # ... with 51 more rows
```
Calculate the median daily steps

```r
median_daily_steps <- activity %>%
  group_by(date) %>%
  summarize(number_of_steps = median(steps, na.rm = TRUE))
```
print the results

```r
median_daily_steps
```

```
## # A tibble: 61 x 2
##    date       number_of_steps
##    <fct>                <dbl>
##  1 2012-10-01              NA
##  2 2012-10-02               0
##  3 2012-10-03               0
##  4 2012-10-04               0
##  5 2012-10-05               0
##  6 2012-10-06               0
##  7 2012-10-07               0
##  8 2012-10-08              NA
##  9 2012-10-09               0
## 10 2012-10-10               0
## # ... with 51 more rows
```
…
